<?xml version="1.0" encoding="UTF-8"?>
<session version="1.0">
<refactoring comment="Rename resource &apos;customer_simdetails.module/Processes/customer_simdetails/module/Process.bwp&apos; to &apos;ProcessStarter.bwp&apos;" description="Rename resource &apos;Process.bwp&apos;" flags="7" id="org.eclipse.ltk.core.refactoring.rename.resource" input="Processes/customer_simdetails/module/Process.bwp" name="ProcessStarter.bwp" stamp="1498471760997" updateReferences="true"/>
</session>